Data Cleaning
…
# Read in the sheet
df_inspect <- read_sheet("https://docs.google.com/spreadsheets/d/1im5VSi3bIEi13O8WQ56wEIXSyNEstbGMylXXgD9bAG0/edit#gid=1858227071",
                 sheet="Inspections",
                 col_names = TRUE,
                 col_types = "c") %>% 
  clean_names()

Sometimes facility names are repeated. Use of the dplyr function distinct is useful for isolating issues with field names [@R-dplyr].

df_inspect %>% 
  distinct(facility, .keep_all = TRUE) %>% 
  arrange(facility)

## # A tibble: 374 x 11
##    id    facility     cr     file_name_4   dr     file_name_6  status entered_by
##    <chr> <chr>        <chr>  <chr>         <chr>  <chr>        <chr>  <chr>     
##  1 25    Adams Count~ Cover~ adamsCoCorrC~ Deten~ adamsCoCorr~ Finis~ NMC       
##  2 141   Adams Count~ Cover~ adamsCoMS_SI~ Deten~ adamsCoMS_C~ Finis~ NMC       
##  3 290   Adelanto IC~ Cover~ adelantoEast~ Deten~ adelantoEas~ Finis~ NMC       
##  4 291   Adelanto IC~ Cover~ adelantoWest~ Deten~ adelantoWes~ Start~ ATR       
##  5 43    Adelanto IC~ Cover~ adelantoEast~ Deten~ adelantoEas~ Finis~ NMC       
##  6 142   Adelanto IC~ Cover~ adelantoEast~ Deten~ adelantoEas~ Finis~ NMC       
##  7 44    Adelanto IC~ Cover~ adelantoWest~ Deten~ adelantoWes~ Finis~ ATR       
##  8 143   Adelanto IC~ Cover~ adelantoWest~ Deten~ adelantoWes~ Finis~ KB        
##  9 12    Alamance Co~ Cover~ alamanceCoJa~ Deten~ alamanceCoJ~ Finis~ ATR       
## 10 144   Alamance Co~ Cover~ alamanceCoNC~ Deten~ No SIS prov~ Finis~ NMC       
## # ... with 364 more rows, and 3 more variables: completed_on <chr>,
## #   needs_review <chr>, note <chr>
…
